{
    "agenix": {
        "branch": "main",
        "description": "age-encrypted secrets for NixOS and Home manager",
        "homepage": "https://matrix.to/#/#agenix:nixos.org",
        "owner": "ryantm",
        "repo": "agenix",
        "rev": "8d37c5bdeade12b6479c85acd133063ab53187a0",
        "sha256": "0z26jj4pwliz6v5fdgnwc5fsihjdsy2gz49fcivr4p4178fw4gnr",
        "type": "tarball",
        "url": "https://github.com/ryantm/agenix/archive/8d37c5bdeade12b6479c85acd133063ab53187a0.tar.gz",
        "url_template": "https://github.com/<owner>/<repo>/archive/<rev>.tar.gz"
    },
    "darwin": {
        "branch": "master",
        "description": "nix modules for darwin",
        "homepage": "",
        "owner": "lnl7",
        "repo": "nix-darwin",
        "rev": "e1cacc63e6e324ae95e65e8aaea62dec74686208",
        "sha256": "0mn13cq3nwf3m8rpbgss4nc74p7nh7p190z3d6ad9wx425szk8nw",
        "type": "tarball",
        "url": "https://github.com/lnl7/nix-darwin/archive/e1cacc63e6e324ae95e65e8aaea62dec74686208.tar.gz",
        "url_template": "https://github.com/<owner>/<repo>/archive/<rev>.tar.gz"
    },
    "emacs-overlay": {
        "branch": "master",
        "description": "Bleeding edge emacs overlay [maintainer=@adisbladis] ",
        "homepage": "",
        "owner": "nix-community",
        "repo": "emacs-overlay",
        "rev": "cc961816f69f9d3b4a0a62e8f56dd6bfd6f6c69b",
        "sha256": "0chirpnx9s7rwfj0sjmxz7ghhffp677vpni8lzcd7nbg10vq1nqq",
        "type": "tarball",
        "url": "https://github.com/nix-community/emacs-overlay/archive/cc961816f69f9d3b4a0a62e8f56dd6bfd6f6c69b.tar.gz",
        "url_template": "https://github.com/<owner>/<repo>/archive/<rev>.tar.gz"
    },
    "home-manager": {
        "branch": "master",
        "description": "Manage a user environment using Nix  [maintainer=@rycee] ",
        "homepage": "https://nix-community.github.io/home-manager/",
        "owner": "nix-community",
        "repo": "home-manager",
        "rev": "e3ad5108f54177e6520535768ddbf1e6af54b59d",
        "sha256": "1cp8p31yg8lzma6hydc0qzgd4l7a919cxvgigmmzqy7ggwrp5njv",
        "type": "tarball",
        "url": "https://github.com/nix-community/home-manager/archive/e3ad5108f54177e6520535768ddbf1e6af54b59d.tar.gz",
        "url_template": "https://github.com/<owner>/<repo>/archive/<rev>.tar.gz"
    },
    "nix-index-database": {
        "branch": "main",
        "description": "Weekly updated nix-index database [maintainer=@Mic92]",
        "homepage": "",
        "owner": "Mic92",
        "repo": "nix-index-database",
        "rev": "e0638db3db43b582512a7de8c0f8363a162842b9",
        "sha256": "08nksa0fz5mxb1q9fdv5zyshj7mdy6ixfcx0an33bfyk3yij483w",
        "type": "tarball",
        "url": "https://github.com/Mic92/nix-index-database/archive/e0638db3db43b582512a7de8c0f8363a162842b9.tar.gz",
        "url_template": "https://github.com/<owner>/<repo>/archive/<rev>.tar.gz"
    },
    "nixos-hardware": {
        "branch": "master",
        "description": "A collection of NixOS modules covering hardware quirks.",
        "homepage": "",
        "owner": "NixOS",
        "repo": "nixos-hardware",
        "rev": "d9e0b26202fd500cf3e79f73653cce7f7d541191",
        "sha256": "1dk5m5ksvalw6gs30npvgw20zb6iyy3m5qn8iidcps96gq3bab8l",
        "type": "tarball",
        "url": "https://github.com/NixOS/nixos-hardware/archive/d9e0b26202fd500cf3e79f73653cce7f7d541191.tar.gz",
        "url_template": "https://github.com/<owner>/<repo>/archive/<rev>.tar.gz"
    },
    "nixpkgs": {
        "branch": "nixos-unstable",
        "description": "Nix Packages collection & NixOS",
        "homepage": "",
        "owner": "NixOS",
        "repo": "nixpkgs",
        "rev": "6c0b7a92c30122196a761b440ac0d46d3d9954f1",
        "sha256": "1wxx1h7w47gpg7lkycz51dlrwcm1wb2vcmdbjq3gyhjbxd9hz35j",
        "type": "tarball",
        "url": "https://github.com/NixOS/nixpkgs/archive/6c0b7a92c30122196a761b440ac0d46d3d9954f1.tar.gz",
        "url_template": "https://github.com/<owner>/<repo>/archive/<rev>.tar.gz"
    },
    "nixpkgs-overlays": {
        "path": "overlays",
        "type": "local"
    },
    "nur": {
        "branch": "master",
        "description": "Nix User Repository: User contributed nix packages [maintainer=@Mic92]",
        "homepage": "https://nur.nix-community.org/",
        "owner": "nix-community",
        "repo": "NUR",
        "rev": "ffa207f853f35d25f8eb247ed78a9ed9a5abda1a",
        "sha256": "0gd3x5ssx4xaykf90lp62iimx9860j3rxcg9wh4jmxw0sqn8aak5",
        "type": "tarball",
        "url": "https://github.com/nix-community/NUR/archive/ffa207f853f35d25f8eb247ed78a9ed9a5abda1a.tar.gz",
        "url_template": "https://github.com/<owner>/<repo>/archive/<rev>.tar.gz"
    },
    "personal": {
        "path": "packages",
        "type": "local"
    },
    "private": {
        "path": "private",
        "type": "local"
    }
}
